subject	block_num	condition	stim_time	stim_side	response	response_time
Anna	1	easy	1.531	L	L	2.015
Anna	1	easy	4.76	L	L	4.915
Anna	1	easy	6.855	R	R	7.895
Anna	2	hard	1.168	R	R	2.437
Anna	2	hard	5.016	R	R	6.784
Anna	2	hard	9.122	L	R	9.981
